Results of cfp_451_1

	Plate:1 - Wavelength:451/482

	10.05	9.211	9.988	9.2	9.746	9.915	10.32	9.955	10.23	9.168	8.886	10.48
	9.874	9.985	9.493	9.988	9.891	9.62	9.63	9.732	9.367	9.641	8.398	9.338
	10.72	9.618	8.922	9.691	9.772	8.716	9.493	9.02	8.792	8.905	7.974	9.005
	9.581	8.888	9.166	9.673	9.553	8.846	9.439	8.078	9.149	8.118	9.305	13.28
	9.966	9.208	8.64	8.687	9.241	8.905	9.02	9.999	13.93	13.43	13.37	13.73
	9.409	8.595	8.961	9.67	9.674	8.252	8.467	13.31	14.01	12.54	13.58	13.6
	9.797	9.121	9.059	7.984	9.034	8.986	13.54	13.95	13.23	13.31	13.37	12.73
	8.811	9.127	8.496	8.552	9.323	8.683	14.03	14.04	13.86	12.61	13.61	12.05

Results of yfp_520_1

	Plate:1 - Wavelength:520/542

	2	1.842	1.721	1.839	1.746	1.447	2.079	2.049	2.657	1.642	1.411	1.873
	2.198	2.025	1.915	1.977	1.667	2.371	2.019	1.645	1.889	1.67	1.615	1.774
	2.183	2.222	1.964	1.729	1.654	1.949	1.505	1.624	1.508	1.686	1.65	1.545
	1.81	2.05	1.891	1.977	1.977	1.909	1.345	1.659	1.42	1.435	2.668	1.856
	1.62	1.539	2.013	1.65	2.096	2.321	1.68	2.675	1.722	2.687	2.14	2.388
	1.921	1.9	2.075	1.508	2.051	1.907	1.865	2.361	2.413	2.84	1.847	2.322
	1.664	1.852	1.347	1.611	1.854	1.79	2.278	2.233	1.858	2.176	2.382	2.411
	1.367	2.097	1.875	2.257	1.872	1.633	1.839	2.056	2.408	2.055	2.427	2.125

Results of rfp_584_607

	Plate:1 - Wavelength:584/607

	0.1882	0.1116	0.4113	0.1078	0.2426	0.2375	0.2542	0.4161	0.05069	0.4089	0.2499	0.2688
	0.2685	0.2641	0.3885	0.2732	0.04325	0.4149	0.6709	0.04826	-0.06726	0.2118	0.2564	0.2648
	0.2596	0.1289	-0.2775	0.3839	0.3267	0.3466	-0.03109	0.306	0.06074	0.2732	0.0793	0.0887
	0.3418	0.2608	0.1808	0.5953	0.6209	0.08931	0.1936	0.6022	0.1023	0.2337	0.143	0.2733
	0.3035	0.05678	-0.05269	0.3506	0.2209	0.1696	0.3733	0.2374	0.2993	0.5442	0.3526	0.1597
	0.2178	0.1398	0.4734	0.2413	0.05728	0.305	0.05381	-0.01691	0.1903	0.3662	0.1447	0.2571
	0.3146	0.3323	0.1305	0.2279	0.1279	0.06913	0.4724	0.2274	0.5768	0.3452	0.1933	0.295
	-0.08888	0.3329	0.0237	0.142	0.1067	0.2544	0.5032	0.585	0.2951	0.5757	0.5989	0.3565

Results of Photometric1

	Plate:1 - Wavelength:600

	1.063	0.98	1.082	1.069	1.073	1.065	1.131	0.978	0.935	1.032	1.06	1.157
	1.093	1.027	1.027	1.06	0.99	1.013	1.049	1.003	0.881	0.897	0.841	0.85
	0.877	0.989	0.992	1.008	0.992	0.925	0.925	0.943	0.811	0.814	0.87	0.782
	0.93	0.953	0.954	0.937	0.947	0.93	0.921	0.814	0.813	0.694	0.421	0.043
	0.972	0.901	0.887	0.921	0.939	0.919	0.863	0.295	0.038	0.038	0.041	0.042
	0.898	0.885	0.92	0.891	0.903	0.916	0.799	0.04	0.04	0.04	0.04	0.042
	0.977	0.945	0.965	0.903	0.87	0.957	0.04	0.039	0.04	0.041	0.044	0.04
	1.022	0.896	0.945	0.974	0.982	0.983	0.04	0.04	0.04	0.041	0.042	0.042

